Rafael Sant’Ana Herzog - Entendendo, calculando e visualizando a razão de mortalidade materna do Brasil com o R
…
# Carregando os pacotes necessários
library(tidyverse)
library(sf)
library(DT)

Para importar a base de dados com a qual trabalharemos ao longo do post, será utilizada a função read_delim, do pacote readr, que receberá dois argumentos: o primeiro, file, recebe o nome do arquivo .csv que contém nossa base de dados; já o segundo argumento, delim, recebe o delimitador utilizado no arquivo para separar suas colunas, que nesse caso é o ponto e vírgula. A base de dados será salva no objeto nomeado por dados_maternos. Caso queira, você também pode realizar o download do arquivo através deste link.

dados_maternos <- read_delim(file = "dados_maternos.csv", delim = ";")

A tibble dados_maternos é formada por seis colunas, que contêm, respectivamente, o código do estado, sua sigla, a região à qual o estado pertence, o ano ao qual a linha se refere (indo de 2005 a 2019, uma vez que os dados de 2020 e 2021 ainda são preliminares), o número de nascidos vivos no estado no dado ano e o número de óbitos maternos no mesmo. As linhas da tibble estão ordenadas de acordo com o código das unidades federativas. Os dados referentes aos nascidos vivos são provenientes do SINASC (Sistema de Informações sobre Nascidos Vivos) e foram obtidos através do Painel de Monitoramento de Nascidos Vivos do Ministério da Saúde, enquanto as informações sobre os óbitos maternos são provenientes do SIM (Sistema de Informações sobre Mortalidade) e foram obtidas por meio do Painel de Monitoramento da Mortalidade Materna do mesmo órgão. Observe abaixo as dez primeiras linhas da tibble.

dados_maternos

# A tibble: 405 × 6
   codigo_uf uf    regiao   ano nascimentos obitos
       <dbl> <chr> <chr>  <dbl>       <dbl>  <dbl>
 1        11 RO    Norte   2005       28081     15
 2        11 RO    Norte   2006       24925     15
 3        11 RO    Norte   2007       22996     10
 4        11 RO    Norte   2008       26791     12
 5        11 RO    Norte   2009       26083     17
 6        11 RO    Norte   2010       25835     16
 7        11 RO    Norte   2011       27658     15
 8        11 RO    Norte   2012       26513     17
 9        11 RO    Norte   2013       27097     18
10        11 RO    Norte   2014       27560     22
# ℹ 395 more rows

Calculando a razão de mortalidade materna e a adicionando à base de dados

Caso nosso interesse seja apenas adicionar uma coluna contendo a razão de mortalidade materna para cada estado e ano à nossa base de dados, precisamos apenas executar um comando. Utilizando a função mutate, do pacote dplyr, adicionaremos uma nova coluna à tibble dados_maternos, a qual nomearemos por “mortalidade”. Essa nova coluna será formada por um vetor de números no qual cada posição representa o valor do cálculo discutido na seção anterior para cada uma das linhas de dados_maternos, arredondados para duas casas decimais por meio da função round, do pacote básico base. Por padrão, a função mutate irá manter todas as colunas originais da tibble utlizada, adicionando a nova coluna em seu lado direito.

# Calculando a razão de mortalidade materna e a adicionando à base de dados
dados_maternos <- dados_maternos |> 
  mutate("mortalidade" = round((dados_maternos$obitos/dados_maternos$nascimentos) * 100000, digits = 2))

As primeiras linhas do objeto resultante desse processo podem ser vistas a seguir:

dados_maternos

# A tibble: 405 × 7
   codigo_uf uf    regiao   ano nascimentos obitos mortalidade
       <dbl> <chr> <chr>  <dbl>       <dbl>  <dbl>       <dbl>
 1        11 RO    Norte   2005       28081     15        53.4
 2        11 RO    Norte   2006       24925     15        60.2
 3        11 RO    Norte   2007       22996     10        43.5
 4        11 RO    Norte   2008       26791     12        44.8
 5        11 RO    Norte   2009       26083     17        65.2
 6        11 RO    Norte   2010       25835     16        61.9
 7        11 RO    Norte   2011       27658     15        54.2
 8        11 RO    Norte   2012       26513     17        64.1
 9        11 RO    Norte   2013       27097     18        66.4
10        11 RO    Norte   2014       27560     22        79.8
# ℹ 395 more rows
…
